Lab 5: Student Evaluations of Teaching
…
10. Which instructors had the highest and lowest average rating for Question 1 (I learnt a lot during the course.) across all their courses?

teacher_evals_clean |>
  filter(question_no == 901) |> #filter for only question 1
  group_by(teacher_id) |> #group by teacher
  summarise(mean_SET_score_avg = mean(SET_score_avg)) |> #determine average SET score across all classes
  filter(mean_SET_score_avg == c(1,5)) |> #only select teachers with a mean score of 1 or 5
  arrange(mean_SET_score_avg) #arranges by SET score average

Warning: There was 1 warning in `filter()`.
ℹ In argument: `mean_SET_score_avg == c(1, 5)`.
Caused by warning in `mean_SET_score_avg == c(1, 5)`:
! longer object length is not a multiple of shorter object length

# A tibble: 43 × 2
   teacher_id mean_SET_score_avg
   <chr>                   <dbl>
 1 54201                       1
 2 105217                      5
 3 106429                      5
 4 3471                        5
 5 3608                        5
 6 3662                        5
 7 3682                        5
 8 37013                       5
 9 37023                       5
10 37026                       5
# ℹ 33 more rows

In the dataset, 42 teachers recieved the maximum average rating of 5 for question 1 across all their courses, while only 1, teacher 54201, recieved the lowest average rating of 1 across all their courses.

11. Which instructors with one year of experience had the highest and lowest average percentage of students failing in the current semester across all their courses?

teacher_evals_clean |>
  filter(seniority == 1) |> #filter for only 1st year teachers
  group_by(teacher_id) |> #group by teacher
  summarise(mean_percent_failed_cur = mean(percent_failed_cur)) |> #determine percent failing across all classes
  arrange(mean_percent_failed_cur) #arrange by number of students failing

# A tibble: 33 × 2
   teacher_id mean_percent_failed_cur
   <chr>                        <dbl>
 1 102379                      0     
 2 103092                      0     
 3 106126                      0     
 4 86222                       0     
 5 98650                       0     
 6 98651                       0     
 7 105217                      0.025 
 8 84689                       0.0408
 9 80974                       0.0556
10 98652                       0.0662
# ℹ 23 more rows
…
